…
There are 404 unique locations (counties) in the dataset.

``` r
#Viewing a tibble of all the states
brfss_data %>% 
  count(state)
```

    ## # A tibble: 51 x 2
    ##    state     n
    ##    <chr> <int>
    ##  1 AK       11
    ##  2 AL       18
    ##  3 AR       21
    ##  4 AZ       32
    ##  5 CA       52
    ##  6 CO       59
    ##  7 CT       47
    ##  8 DC        9
    ##  9 DE       27
    ## 10 FL      122
    ## # ... with 41 more rows
…
